[{
  "_id": {
    "$oid": "5fe2b479a967acfc5fa15790"
  },
  "id": "DEVICE-00-0001",
  "point_name": "ทางเข้าอาคาร 1",
  "time_open_door": {
    "start_time": {
      "$date": "2020-12-22T22:30:00.000Z"
    },
    "end_time": {
      "$date": "2020-12-23T04:15:00.000Z"
    }
  },
  "tablets": false,
  "iot": true,
  "sensor": true,
  "break_glass": true,
  "timestamp": {
    "$date": "2020-12-23T03:07:37.288Z"
  }
}, {
  "_id": {
    "$oid": "609a92c03de8fa4a94eaa207"
  },
  "id": "DEVICE-00-0002",
  "point_name": "ทางเข้าห้องประชุม 4",
  "time_open_door": {
    "start_time": {
      "$date": "2020-12-22T22:30:00.000Z"
    },
    "end_time": {
      "$date": "2020-12-23T04:15:00.000Z"
    }
  },
  "tablets": true,
  "iot": true,
  "sensor": false,
  "break_glass": false,
  "timestamp": {
    "$date": "2020-12-23T03:07:37.288Z"
  }
}, {
  "_id": {
    "$oid": "609a92ff3de8fa4a94eaa208"
  },
  "id": "DEVICE-00-0003",
  "point_name": "ทางเข้าลิฟ",
  "time_open_door": {
    "start_time": {
      "$date": "2020-12-22T22:30:00.000Z"
    },
    "end_time": {
      "$date": "2020-12-23T04:15:00.000Z"
    }
  },
  "tablets": true,
  "iot": true,
  "sensor": true,
  "break_glass": true,
  "timestamp": {
    "$date": "2020-12-23T03:07:37.288Z"
  }
}, {
  "_id": {
    "$oid": "609a93b03de8fa4a94eaa209"
  },
  "id": "DEVICE-00-0004",
  "point_name": "ทางเข้าประตูหน้าห้องรักษาความปลอยภัย 5",
  "time_open_door": {
    "start_time": {
      "$date": "2020-12-22T22:30:00.000Z"
    },
    "end_time": {
      "$date": "2020-12-23T04:15:00.000Z"
    }
  },
  "tablets": true,
  "iot": true,
  "sensor": false,
  "break_glass": true,
  "timestamp": {
    "$date": "2020-12-23T03:07:37.288Z"
  }
}]